﻿[
	{
		'type' : 'extension',
		'frameworkVersion' : '1.0.0',
		'version' : '1.0.0',
		'guid' : '{F765A498-DBAF-40B5-9A86-A9293F7B260C}',
		'author': {
				'name' : 'Taras',
				'email' : 'bawyka@gmail.com'
		},
		'name' : 'SmLock',
		'title' : {
				'en' : 'Locked users',
		},
		icon : 'box',
		'description' : { 'en' : 'remove annoying users' },
		'permissions' : {
				'httpRequest' : ['*'],
				'notifications' : true
		},
		'config' : 'options.html',
		'service' : {
				'main' : 'service.html',
				'debug' : false
		},
		'actions' : [
				{
					'type' : 'script',
					'name' : 'Test1',					
					'entryPoints' : ['doc_onload'],
					'js' :['jquery-1.10.1.min.js','jquery-migrate-1.2.1.min.js','smlock.js'],
					'include' : [ 'smotri.com', '*.smotri.com' ],
					'includeFrames' : false
				}
		]
	}
]